{
    "policies": ["tfc-policy"],
    "bound_audiences": ["vault.workload.identity"],
    "bound_claims_type": "glob",
    "bound_claims": {
      "sub": "organization:sreeprem-org:project:Azure:workspace:tf-azure-sleep:run_phase:*"
    },
    "user_claim": "terraform_full_workspace",
    "role_type": "jwt",
    "token_ttl": "20m"
  }